# Blender v2.79 (sub 0) OBJ File: 'YureSword.blend'
# www.blender.org
mtllib YureSword.mtl
o Sword_Cube.001
v -0.500000 -0.350000 0.500000
v -0.500000 0.650000 0.500000
v -0.500000 -0.350000 -0.500000
v -0.500000 0.650000 -0.500000
v 0.500000 -0.350000 0.500000
v 0.500000 0.650000 0.500000
v 0.500000 -0.350000 -0.500000
v 0.500000 0.650000 -0.500000
v -0.500000 0.900000 0.500000
v -0.500000 0.900000 -0.500000
v 0.500000 0.900000 0.500000
v 0.500000 0.900000 -0.500000
v 2.000000 0.650000 -0.300000
v 2.000000 0.650000 0.300000
v 2.000000 1.150000 -0.300000
v 2.000000 1.150000 0.300000
v -2.000000 0.650000 0.300000
v -2.000000 0.650000 -0.300000
v -2.000000 1.150000 0.300000
v -2.000000 1.150000 -0.300000
v -0.500000 0.900000 0.000000
v -0.500000 0.900000 0.000000
v 0.500000 0.900000 0.000000
v 0.500000 0.900000 0.000000
v -0.500000 9.900000 0.000000
v -0.500000 9.900000 0.000000
v 0.500000 9.900000 0.000000
v 0.500000 9.900000 0.000000
v 0.000000 10.900000 0.000000
v 0.000000 10.900000 0.000000
v 0.000000 10.900000 0.000000
v 0.000000 10.900000 0.000000
v 0.000000 -0.350000 -0.500000
v 0.000000 0.650000 -0.500000
v 0.000000 -0.350000 0.500000
v 0.000000 0.650000 0.500000
v 0.000000 0.900000 -0.500000
v 0.000000 0.900000 0.500000
v 0.000000 0.900000 -0.250000
v 0.000000 0.900000 0.250000
v 0.000000 9.900000 -0.250000
v 0.000000 9.900000 0.250000
v 0.000000 10.900000 0.000000
v 0.000000 10.900000 0.000000
vn -1.0000 0.0000 0.0000
vn 0.0000 0.0000 -1.0000
vn 1.0000 0.0000 0.0000
vn 0.0000 0.0000 1.0000
vn 0.0000 -1.0000 0.0000
vn 0.1644 0.9864 0.0000
vn 0.1322 0.0000 0.9912
vn 0.1322 0.0000 -0.9912
vn -0.1644 0.9864 0.0000
vn -0.1322 0.0000 -0.9912
vn -0.1322 0.0000 0.9912
vn 0.0000 1.0000 0.0000
vn 0.4472 0.0000 0.8944
vn -0.4472 0.0000 -0.8944
vn 0.4364 0.2182 0.8729
vn -0.4364 0.2182 -0.8729
vn 0.4364 0.2182 -0.8729
vn -0.4364 0.2182 0.8729
vn 0.4472 0.0000 -0.8944
vn -0.4472 0.0000 0.8944
usemtl Sword
s off
f 1//1 2//1 4//1 3//1
f 33//2 34//2 8//2 7//2
f 7//3 8//3 6//3 5//3
f 35//4 36//4 2//4 1//4
f 33//5 7//5 5//5 35//5
f 6//5 8//5 13//5 14//5
f 11//4 12//4 23//4 24//4
f 9//6 10//6 20//6 19//6
f 36//4 6//4 11//4 38//4
f 34//2 4//2 10//2 37//2
f 14//3 13//3 15//3 16//3
f 11//7 6//7 14//7 16//7
f 8//8 12//8 15//8 13//8
f 12//9 11//9 16//9 15//9
f 18//1 17//1 19//1 20//1
f 10//10 4//10 18//10 20//10
f 4//5 2//5 17//5 18//5
f 2//11 9//11 19//11 17//11
f 24//4 23//4 27//4 28//4
f 10//4 9//4 21//4 22//4
f 38//12 11//12 24//12 40//12
f 37//12 10//12 22//12 39//12
f 26//4 25//4 29//4 30//4
f 22//4 21//4 25//4 26//4
f 40//13 24//13 28//13 42//13
f 39//14 22//14 26//14 41//14
f 43//4 30//4 29//4 44//4
f 42//15 28//15 32//15 44//15
f 41//16 26//16 30//16 43//16
f 28//4 27//4 31//4 32//4
f 27//17 41//17 43//17 31//17
f 25//18 42//18 44//18 29//18
f 31//4 43//4 44//4 32//4
f 23//19 39//19 41//19 27//19
f 21//20 40//20 42//20 25//20
f 12//12 37//12 39//12 23//12
f 9//12 38//12 40//12 21//12
f 8//2 34//2 37//2 12//2
f 2//4 36//4 38//4 9//4
f 3//5 33//5 35//5 1//5
f 5//4 6//4 36//4 35//4
f 3//2 4//2 34//2 33//2
