%YAML 1.1
%TAG !u! tag:unity3d.com,2011:
--- !u!1045 &1
EditorBuildSettings:
  m_ObjectHideFlags: 0
  serializedVersion: 2
  m_Scenes:
  - enabled: 1
    path: Assets/Scenes/Startup/Title.unity
    guid: e45c6111c8421be48aaf14bcbf0235e3
  - enabled: 1
    path: Assets/Scenes/LoadingScene.unity
    guid: b29666557b1a92148bca7b2c2b01edf3
  - enabled: 1
    path: Assets/Scenes/Startup/Intro.unity
    guid: 267302e003584e241b77c0d93abec7b2
  - enabled: 1
    path: Assets/Scenes/Startup/WorldSelection.unity
    guid: 88a6e7276c3a2e74f8833cd011e0e5ab
  - enabled: 1
    path: Assets/Scenes/World1/W1L1.unity
    guid: c26e5de5ad96bb346ba76a9859c85dfa
  - enabled: 1
    path: Assets/Scenes/World1/W1L2.unity
    guid: 727a9d9c03bac5647b7188fe46c9a11f
  - enabled: 1
    path: Assets/Scenes/World1/W1L3.unity
    guid: 42251e045e27b284f93a57183973a696
  - enabled: 1
    path: Assets/Scenes/World1/W1L4.unity
    guid: 88f2874305b68e64aae67708b70864dc
  - enabled: 1
    path: Assets/Scenes/Misc/Winner.unity
    guid: b341038df59ac0646bb864a3837d9790
  - enabled: 1
    path: Assets/Scenes/World2/W2L1.unity
    guid: 8c79b74d4e541104cb47ae032529b85d
  - enabled: 1
    path: Assets/Scenes/World3/W3L1.unity
    guid: e6a067e8690bc294d99fe26b1128f7d7
  - enabled: 1
    path: Assets/Scenes/World4/W4L1.unity
    guid: 37575135cbbc421489bb456a34a573ab
  - enabled: 1
    path: Assets/Scenes/World2/W2L2.unity
    guid: 1a2a0bf52d0002143ab0016fbf9c68bc
  - enabled: 1
    path: Assets/Scenes/World2/W2L3.unity
    guid: 009e5cc4bfd00c9428044e21a27320ef
  - enabled: 1
    path: Assets/Scenes/World2/W2L4.unity
    guid: de360a968c936c440b619b3fca00cef6
  - enabled: 1
    path: Assets/Scenes/World3/W3L2.unity
    guid: 63dbf31ab61660d4a8198a8b9c3342cc
  - enabled: 1
    path: Assets/Scenes/World3/W3L3.unity
    guid: 8fd6c44f7c45df7469708d1391c77fdb
  - enabled: 1
    path: Assets/Scenes/World3/W3L4.unity
    guid: f63e43b1b582b784cba88b17b5b94f69
  - enabled: 1
    path: Assets/Scenes/World4/W4L3.unity
    guid: b4d7063a12d07be4e93451f3609f3158
  - enabled: 1
    path: Assets/Scenes/World4/W4L2.unity
    guid: 724e7fb8abafcca44a4a0a215edb9329
  - enabled: 1
    path: Assets/Scenes/World4/W4L4.unity
    guid: c44e42f6a5fb1a4439ab350533549126
  - enabled: 1
    path: Assets/Scenes/Startup/Epilogue.unity
    guid: d0a79b5d8c9f45747a614b10687c94f9
